module github.com/zaquestion/lab

require (
	github.com/Microsoft/go-winio v0.4.15 // indirect
	github.com/acarl005/stripansi v0.0.0-20180116102854-5a71ef0e047d
	github.com/alecthomas/chroma v0.8.1 // indirect
	github.com/araddon/dateparse v0.0.0-20201001162425-8aadafed4dc4
	github.com/avast/retry-go v3.0.0+incompatible
	github.com/charmbracelet/glamour v0.2.0
	github.com/dlclark/regexp2 v1.4.0 // indirect
	github.com/fatih/color v1.10.0
	github.com/fsnotify/fsnotify v1.4.9 // indirect
	github.com/gdamore/tcell/v2 v2.0.1-0.20201017141208-acf90d56d591
	github.com/go-git/go-git/v5 v5.2.0
	github.com/golang/protobuf v1.4.3 // indirect
	github.com/hashicorp/go-retryablehttp v0.7.0 // indirect
	github.com/imdario/mergo v0.3.11 // indirect
	github.com/jaytaylor/html2text v0.0.0-20200412013138-3577fbdbcff7
	github.com/kevinburke/ssh_config v0.0.0-20201106050909-4977a11b4351 // indirect
	github.com/lunixbochs/vtclean v1.0.0
	github.com/magiconair/properties v1.8.4 // indirect
	github.com/microcosm-cc/bluemonday v1.0.4 // indirect
	github.com/mitchellh/mapstructure v1.3.3 // indirect
	github.com/muesli/reflow v0.2.0 // indirect
	github.com/muesli/termenv v0.7.4
	github.com/onsi/gomega v1.4.3 // indirect
	github.com/pelletier/go-toml v1.8.1 // indirect
	github.com/pkg/errors v0.9.1
	github.com/rivo/tview v0.0.0-20210125085121-dbc1f32bb1d0
	github.com/rsteube/carapace v0.4.1
	github.com/russross/blackfriday/v2 v2.1.0 // indirect
	github.com/spf13/afero v1.4.1
	github.com/spf13/cast v1.3.1 // indirect
	github.com/spf13/cobra v1.1.1
	github.com/spf13/jwalterweatherman v1.1.0 // indirect
	github.com/spf13/pflag v1.0.5
	github.com/spf13/viper v1.7.1
	github.com/ssor/bom v0.0.0-20170718123548-6386211fdfcf // indirect
	github.com/stretchr/testify v1.6.1
	github.com/tcnksm/go-gitconfig v0.1.2
	github.com/xanzy/go-gitlab v0.49.0
	github.com/xanzy/ssh-agent v0.3.0 // indirect
	github.com/yuin/goldmark v1.2.1 // indirect
	golang.org/x/crypto v0.0.0-20201016220609-9e8e0b390897
	golang.org/x/net v0.0.0-20201110031124-69a78807bb2b // indirect
	golang.org/x/oauth2 v0.0.0-20201109201403-9fd604954f58 // indirect
	golang.org/x/time v0.0.0-20200630173020-3af7569d3a1e // indirect
	google.golang.org/appengine v1.6.7 // indirect
	gopkg.in/ini.v1 v1.62.0 // indirect
)

go 1.13
